How to make better spaghetti plots
…
- key : Variable(s) defining individual groups (or series)

For more information,please visit here.

 Codes:

heights_data <- as_tsibble(heights_data,
                      index = year,
                      key = country,
                      regular = FALSE)
heights_data

 Results:

## # A tsibble: 1,490 x 3 [!]
## # Key:       country [144]
##    country      year height_cm
##    <chr>       <dbl>     <dbl>
##  1 Afghanistan  1870      168.
##  2 Afghanistan  1880      166.
##  3 Afghanistan  1930      167.
##  4 Afghanistan  1990      167.
##  5 Afghanistan  2000      161.
##  6 Albania      1880      170.
##  7 Albania      1890      170.
##  8 Albania      1900      169.
##  9 Albania      2000      168.
## 10 Algeria      1910      169.
## # … with 1,480 more rows
…
heights_aug
# plot model
gg_heights_fit <- ggplot(heights_aug,
       aes(x = year ,
           y = pred ,
           group = country)) +
  geom_line()

gg_heights_fit +
  ggtitle("model prediction plot")

 Results:

## # A tsibble: 1,490 x 5 [!]
## # Key:       country [144]
##    country      year height_cm  pred    res
##    <chr>       <dbl>     <dbl> <dbl>  <dbl>
##  1 Afghanistan  1870      168.  164.  4.59 
##  2 Afghanistan  1880      166.  164.  1.52 
##  3 Afghanistan  1930      167.  166.  0.823
##  4 Afghanistan  1990      167.  168. -1.04 
##  5 Afghanistan  2000      161.  169. -7.10 
##  6 Albania      1880      170.  168.  2.39 
##  7 Albania      1890      170.  168.  1.73 
##  8 Albania      1900      169.  168.  0.769
##  9 Albania      2000      168.  172. -4.14 
## 10 Algeria      1910      169.  168.  1.28 
## # … with 1,480 more rows
…
